{
  "data": [
    {
      "id": 2338124245,
      "number": 90,
      "title": "Fix: API confirmed in development layer",
      "description": " this change won't interfere with deployment.\r\n \r\nThe changes we made are only in the server section of the Vite config, which is only used during local development (npm run dev).\r\n\r\nWhen you build and deploy the frontend (npm run build), Vite doesn't use these proxy settings at all. The production build will still make requests to the actual production URL.\r\n\r\n\r\n\r\n![image](https://github.com/user-attachments/assets/be57d029-2314-4067-a2ad-632ee9207018)\r\n\r\n![image](https://github.com/user-attachments/assets/343e0396-0a9b-437b-bebf-e2050a8511e5)\r\n\r\n![image](https://github.com/user-attachments/assets/8eaffebd-6858-4fae-a46c-8ebb2538c627)\r\n\r\n\r\n![image](https://github.com/user-attachments/assets/caa5ee8d-fe6d-424f-8c56-606d7088cf6d)\r\n\r\n\r\n\r\n\r\n",
      "created_at": "2025-02-16T09:01:35Z",
      "merged_at": null,
      "html_url": "https://github.com/dimitri-edel/team-5/pull/90",
      "state": "closed",
      "additions": 7,
      "deletions": 4,
      "repository": {
        "name": "team-5",
        "description": null,
        "language": "JavaScript",
        "html_url": "https://github.com/dimitri-edel/team-5",
        "owner": {
          "login": "dimitri-edel",
          "avatar_url": "https://avatars.githubusercontent.com/u/126069681?v=4"
        }
      }
    },
    {
      "id": 2337830638,
      "number": 68,
      "title": "Add allauth middleware to Django settings -- fix python3 manage.py runserver command",
      "description": null,
      "created_at": "2025-02-15T17:00:12Z",
      "merged_at": "2025-02-15T17:01:08Z",
      "html_url": "https://github.com/dimitri-edel/team-5/pull/68",
      "state": "merged",
      "additions": 1,
      "deletions": 0,
      "repository": {
        "name": "team-5",
        "description": null,
        "language": "JavaScript",
        "html_url": "https://github.com/dimitri-edel/team-5",
        "owner": {
          "login": "dimitri-edel",
          "avatar_url": "https://avatars.githubusercontent.com/u/126069681?v=4"
        }
      }
    },
    {
      "id": 2337754786,
      "number": 60,
      "title": "Remove Django REST API project files from root",
      "description": null,
      "created_at": "2025-02-15T14:33:42Z",
      "merged_at": "2025-02-15T14:53:50Z",
      "html_url": "https://github.com/dimitri-edel/team-5/pull/60",
      "state": "merged",
      "additions": 0,
      "deletions": 378,
      "repository": {
        "name": "team-5",
        "description": null,
        "language": "JavaScript",
        "html_url": "https://github.com/dimitri-edel/team-5",
        "owner": {
          "login": "dimitri-edel",
          "avatar_url": "https://avatars.githubusercontent.com/u/126069681?v=4"
        }
      }
    },
    {
      "id": 2337714488,
      "number": 58,
      "title": "PR -- updated settings.py, vite, urls; auth ported from js to jsx",
      "description": "- all .md file changes, inconsequential\r\n- simplify procfile --- to be split between Procfile and Procfile.frontend\r\n- update vite and urls.config\r\n- App.js formatting for frontend\r\n- settings.py remove 2 apps causing serve issues, the rest is inline markdown to be ignored,\r\n- Signin and signup moved from js to jsx, syntax correction, needed for prod",
      "created_at": "2025-02-15T12:50:47Z",
      "merged_at": "2025-02-15T13:35:04Z",
      "html_url": "https://github.com/dimitri-edel/team-5/pull/58",
      "state": "merged",
      "additions": 150,
      "deletions": 185,
      "repository": {
        "name": "team-5",
        "description": null,
        "language": "JavaScript",
        "html_url": "https://github.com/dimitri-edel/team-5",
        "owner": {
          "login": "dimitri-edel",
          "avatar_url": "https://avatars.githubusercontent.com/u/126069681?v=4"
        }
      }
    },
    {
      "id": 2335488350,
      "number": 44,
      "title": "PR -- Request for inspection of routing the API correctly, frontend seems to override",
      "description": "please can a team member review docs/1_deployment.md and review the issue with routing the API.\r\n\r\n\r\n\r\n----\r\n\r\nDeployment issues: \r\n\r\nExpecting the API to be hosted on `https://team5-api-eu-5d24fa110c36.herokuapp.com/api/`\r\n\r\nExpecting the frontend to be hosted on `https://team5-api-eu-5d24fa110c36.herokuapp.com/`\r\n\r\n\r\n--- \r\n\r\nThe Frontend is hosted on `https://team5-frontend-eu-5d24fa110c36.herokuapp.com/`\r\n\r\nBut the API instead hosts the frontend on `https://team5-api-eu-5d24fa110c36.herokuapp.com/api`\r\n\r\n\r\n---\r\n\r\ndeployment is managed by `Procfile` in the root directory\r\n\r\n```\r\nweb: cd frontend; npm install; npm run build; npx serve dist -s -l $PORT --single\r\napi: gunicorn rest_api.wsgi:application --log-file -\r\n```\r\n\r\n\r\nThe Procfile shows two processes:\r\nweb: Handles the frontend by installing dependencies, building the React app, and serving it using npx serve\r\napi: Handles the Django backend using gunicorn\r\n\r\n\r\nwith the command `git push heroku main`\r\n\r\n---\r\n\r\nneed to review the `Procfile` and `settings.py` to ensure that the API and frontend are hosted in the correct places.\r\n\r\n\r\n---\r\n```python\r\n\"\"\"rest_api URL Configuration\r\n    IMPORTANT: urls.py should not handle static files.\r\n\"\"\"\r\n\r\nfrom django.contrib import admin\r\nfrom django.urls import path\r\nfrom rest_api import views\r\n\r\nurlpatterns = [\r\n    path('api/', views.HelloWorld.as_view(), name='hello-world'), # expecting this to be hosted on https://team5-api-eu-5d24fa110c36.herokuapp.com/api/ ISSUE:currently this URL hosts the frontend\r\n    path('admin/', admin.site.urls),\r\n]\r\n```\r\n\r\nhttp://127.0.0.1:8000/api/ works as expected, serves the API.\r\n\r\n\r\n\r\n",
      "created_at": "2025-02-14T08:13:11Z",
      "merged_at": "2025-02-14T13:41:57Z",
      "html_url": "https://github.com/dimitri-edel/team-5/pull/44",
      "state": "merged",
      "additions": 61,
      "deletions": 3,
      "repository": {
        "name": "team-5",
        "description": null,
        "language": "JavaScript",
        "html_url": "https://github.com/dimitri-edel/team-5",
        "owner": {
          "login": "dimitri-edel",
          "avatar_url": "https://avatars.githubusercontent.com/u/126069681?v=4"
        }
      }
    },
    {
      "id": 2334839438,
      "number": 43,
      "title": "API dev AND prod now working; frontend dev working; 1 endpoint fixed, 1 endpoint remaining",
      "description": "The API endpoint is hosted at https://team5-api-eu-5d24fa110c36.herokuapp.com/ for both the API and frontend.\r\n\r\nIn development, the URL is http://127.0.0.1:8000/ and shuold work the same\r\n\r\nAPI is hosted in /api/\r\nFrontend in root /\r\n\r\nAPI endpoints:\r\n\r\n| Endpoint | Method | Expect | Result Dev | Result Prod |\r\n|----------|--------|---------|------------|-------------|\r\n| /api    | GET    | Returns Hello World | ✅ | ✅  |\r\n\r\n\r\nFrontend endpoints\r\n| Endpoint | Method | Expect | Result Dev | Result Prod |\r\n|----------|--------|---------|------------|-------------|\r\n| /        | GET    | Returns Hello World in frontend React Portal | ✅ | ❌ |\r\n\r\n![image](https://github.com/user-attachments/assets/60d3807a-eb0d-4bc2-b4ff-6717dd0b6b5a)\r\n![image](https://github.com/user-attachments/assets/5addafe5-d866-444f-b770-b0ac9fd07c41)\r\n\r\n***\r\n\r\n**problem area: frontend prod**\r\n![image](https://github.com/user-attachments/assets/1aa74ba9-2b11-4a58-9f07-bd910e7625e6)\r\n\r\n\r\nLooking at the Heroku logs, there are a few important things to note:\r\n\r\nThe API endpoint /api/ is working correctly (status 200) as shown by the successful requests at 22:06:51.\r\n\r\nHowever, there's an issue with serving the frontend static files. When requests are made to /, /assets/css/index-n_ryQ3BS.css, /assets/js/index-Dx1lIxT0.js, and /vite.svg, they all return a 200 status but with only 750 bytes, which suggests they're not actually serving the correct content.\r\n\r\nThe main issue appears to be that while the Django API is working correctly, the static files for the frontend are not being served properly. This is likely because:\r\n\r\nThe static file serving configuration in Frontend needs to be properly set up for production",
      "created_at": "2025-02-13T22:17:26Z",
      "merged_at": "2025-02-13T23:44:04Z",
      "html_url": "https://github.com/dimitri-edel/team-5/pull/43",
      "state": "merged",
      "additions": 248,
      "deletions": 109,
      "repository": {
        "name": "team-5",
        "description": null,
        "language": "JavaScript",
        "html_url": "https://github.com/dimitri-edel/team-5",
        "owner": {
          "login": "dimitri-edel",
          "avatar_url": "https://avatars.githubusercontent.com/u/126069681?v=4"
        }
      }
    },
    {
      "id": 2334486565,
      "number": 40,
      "title": "Frontend Dev renders API Dev -- need to test in Production with Endpoints(see Slack)",
      "description": null,
      "created_at": "2025-02-13T18:34:02Z",
      "merged_at": "2025-02-13T19:23:31Z",
      "html_url": "https://github.com/dimitri-edel/team-5/pull/40",
      "state": "merged",
      "additions": 219,
      "deletions": 135,
      "repository": {
        "name": "team-5",
        "description": null,
        "language": "JavaScript",
        "html_url": "https://github.com/dimitri-edel/team-5",
        "owner": {
          "login": "dimitri-edel",
          "avatar_url": "https://avatars.githubusercontent.com/u/126069681?v=4"
        }
      }
    },
    {
      "id": 2334263240,
      "number": 27,
      "title": "Port typescript to javascript",
      "description": "![image](https://github.com/user-attachments/assets/c7903423-8b8f-4987-8f4e-53383ba8d171)\r\n",
      "created_at": "2025-02-13T16:38:59Z",
      "merged_at": "2025-02-13T16:43:17Z",
      "html_url": "https://github.com/dimitri-edel/team-5/pull/27",
      "state": "merged",
      "additions": 61,
      "deletions": 449,
      "repository": {
        "name": "team-5",
        "description": null,
        "language": "JavaScript",
        "html_url": "https://github.com/dimitri-edel/team-5",
        "owner": {
          "login": "dimitri-edel",
          "avatar_url": "https://avatars.githubusercontent.com/u/126069681?v=4"
        }
      }
    },
    {
      "id": 2332388909,
      "number": 17,
      "title": "Hello World working in Dev, need to test prod is working. We have 2 Herokus now for Frontend and API",
      "description": "![image](https://github.com/user-attachments/assets/32056048-694e-4851-bd28-75d11aeef0c3)\r\n\r\nHello world working in Dev\r\n\r\n\r\n\r\n***\r\n\r\n\r\n![image](https://github.com/user-attachments/assets/b09bdbeb-a19b-4e89-bc84-b3de1003070a)\r\n\r\n\r\nUnit Tests passing `cd frontend; npm run test`\r\n\r\nthere's some console logging that I'll clean up tomorrow after it passes in prod",
      "created_at": "2025-02-12T22:03:01Z",
      "merged_at": "2025-02-13T07:55:06Z",
      "html_url": "https://github.com/dimitri-edel/team-5/pull/17",
      "state": "merged",
      "additions": 4187,
      "deletions": 90,
      "repository": {
        "name": "team-5",
        "description": null,
        "language": "JavaScript",
        "html_url": "https://github.com/dimitri-edel/team-5",
        "owner": {
          "login": "dimitri-edel",
          "avatar_url": "https://avatars.githubusercontent.com/u/126069681?v=4"
        }
      }
    },
    {
      "id": 1725706023,
      "number": 4,
      "title": "Update .gitpod.yml to install Chrome and ChromeDriver",
      "description": null,
      "created_at": "2024-02-14T13:26:28Z",
      "merged_at": null,
      "html_url": "https://github.com/lmcrean/Coach-Matrix/pull/4",
      "state": "closed",
      "additions": 15,
      "deletions": 2,
      "repository": {
        "name": "Coach-Matrix",
        "description": "a multi-user blog for professionals working in education, built with Django and PostgreSQL",
        "language": "Python",
        "html_url": "https://github.com/lmcrean/Coach-Matrix",
        "owner": {
          "login": "lmcrean",
          "avatar_url": "https://avatars.githubusercontent.com/u/133490867?v=4"
        }
      }
    },
    {
      "id": 1688655627,
      "number": 40,
      "title": "fix tooltips in modal boxes being aggressively narrow",
      "description": null,
      "created_at": "2024-01-21T13:04:37Z",
      "merged_at": "2024-01-21T13:06:36Z",
      "html_url": "https://github.com/lmcrean/Wealth-Quest/pull/40",
      "state": "merged",
      "additions": 392,
      "deletions": 139,
      "repository": {
        "name": "Wealth-Quest",
        "description": "A front-end JavaScript game where the user goes on a quest for passive income. The user achieves passive income by navigating deals, paydays and life happenings.",
        "language": "HTML",
        "html_url": "https://github.com/lmcrean/Wealth-Quest",
        "owner": {
          "login": "lmcrean",
          "avatar_url": "https://avatars.githubusercontent.com/u/133490867?v=4"
        }
      }
    },
    {
      "id": 1688651726,
      "number": 39,
      "title": "implement game wheel frrom Renwar Branch",
      "description": null,
      "created_at": "2024-01-21T12:51:48Z",
      "merged_at": "2024-01-21T12:52:07Z",
      "html_url": "https://github.com/lmcrean/Wealth-Quest/pull/39",
      "state": "merged",
      "additions": 343918,
      "deletions": 17,
      "repository": {
        "name": "Wealth-Quest",
        "description": "A front-end JavaScript game where the user goes on a quest for passive income. The user achieves passive income by navigating deals, paydays and life happenings.",
        "language": "HTML",
        "html_url": "https://github.com/lmcrean/Wealth-Quest",
        "owner": {
          "login": "lmcrean",
          "avatar_url": "https://avatars.githubusercontent.com/u/133490867?v=4"
        }
      }
    },
    {
      "id": 1688231351,
      "number": 23,
      "title": "Test json file paths",
      "description": null,
      "created_at": "2024-01-20T14:17:45Z",
      "merged_at": "2024-01-20T14:18:37Z",
      "html_url": "https://github.com/lmcrean/Wealth-Quest/pull/23",
      "state": "merged",
      "additions": 24,
      "deletions": 9,
      "repository": {
        "name": "Wealth-Quest",
        "description": "A front-end JavaScript game where the user goes on a quest for passive income. The user achieves passive income by navigating deals, paydays and life happenings.",
        "language": "HTML",
        "html_url": "https://github.com/lmcrean/Wealth-Quest",
        "owner": {
          "login": "lmcrean",
          "avatar_url": "https://avatars.githubusercontent.com/u/133490867?v=4"
        }
      }
    },
    {
      "id": 1678207758,
      "number": 3,
      "title": "Implement new votingcard design with simplified backend",
      "description": null,
      "created_at": "2024-01-14T18:31:02Z",
      "merged_at": "2024-01-14T18:31:39Z",
      "html_url": "https://github.com/lmcrean/Coach-Matrix/pull/3",
      "state": "merged",
      "additions": 75,
      "deletions": 57,
      "repository": {
        "name": "Coach-Matrix",
        "description": "a multi-user blog for professionals working in education, built with Django and PostgreSQL",
        "language": "Python",
        "html_url": "https://github.com/lmcrean/Coach-Matrix",
        "owner": {
          "login": "lmcrean",
          "avatar_url": "https://avatars.githubusercontent.com/u/133490867?v=4"
        }
      }
    },
    {
      "id": 1678207666,
      "number": 2,
      "title": "Merge pull request #1 from lmcrean/newvotingcard",
      "description": "New voting card implemented in front end",
      "created_at": "2024-01-14T18:30:35Z",
      "merged_at": "2024-01-14T18:30:41Z",
      "html_url": "https://github.com/lmcrean/Coach-Matrix/pull/2",
      "state": "merged",
      "additions": 0,
      "deletions": 0,
      "repository": {
        "name": "Coach-Matrix",
        "description": "a multi-user blog for professionals working in education, built with Django and PostgreSQL",
        "language": "Python",
        "html_url": "https://github.com/lmcrean/Coach-Matrix",
        "owner": {
          "login": "lmcrean",
          "avatar_url": "https://avatars.githubusercontent.com/u/133490867?v=4"
        }
      }
    },
    {
      "id": 1678203574,
      "number": 1,
      "title": "New voting card implemented in front end",
      "description": null,
      "created_at": "2024-01-14T18:24:21Z",
      "merged_at": "2024-01-14T18:24:29Z",
      "html_url": "https://github.com/lmcrean/Coach-Matrix/pull/1",
      "state": "merged",
      "additions": 198,
      "deletions": 57,
      "repository": {
        "name": "Coach-Matrix",
        "description": "a multi-user blog for professionals working in education, built with Django and PostgreSQL",
        "language": "Python",
        "html_url": "https://github.com/lmcrean/Coach-Matrix",
        "owner": {
          "login": "lmcrean",
          "avatar_url": "https://avatars.githubusercontent.com/u/133490867?v=4"
        }
      }
    },
    {
      "id": 1572808139,
      "number": 82,
      "title": "update Readme",
      "description": null,
      "created_at": "2023-10-25T12:14:29Z",
      "merged_at": "2023-10-25T12:14:37Z",
      "html_url": "https://github.com/alcl2000/halloween-hackathon/pull/82",
      "state": "merged",
      "additions": 28,
      "deletions": 0,
      "repository": {
        "name": "halloween-hackathon",
        "description": null,
        "language": "JavaScript",
        "html_url": "https://github.com/alcl2000/halloween-hackathon",
        "owner": {
          "login": "alcl2000",
          "avatar_url": "https://avatars.githubusercontent.com/u/107885891?v=4"
        }
      }
    },
    {
      "id": 1569238095,
      "number": 80,
      "title": "update Readme",
      "description": null,
      "created_at": "2023-10-23T13:52:04Z",
      "merged_at": "2023-10-23T13:52:58Z",
      "html_url": "https://github.com/alcl2000/halloween-hackathon/pull/80",
      "state": "merged",
      "additions": 7,
      "deletions": 1,
      "repository": {
        "name": "halloween-hackathon",
        "description": null,
        "language": "JavaScript",
        "html_url": "https://github.com/alcl2000/halloween-hackathon",
        "owner": {
          "login": "alcl2000",
          "avatar_url": "https://avatars.githubusercontent.com/u/107885891?v=4"
        }
      }
    },
    {
      "id": 1569215247,
      "number": 79,
      "title": "Fix hamburger with overwrite of react bootstrap",
      "description": null,
      "created_at": "2023-10-23T13:40:51Z",
      "merged_at": "2023-10-23T13:42:28Z",
      "html_url": "https://github.com/alcl2000/halloween-hackathon/pull/79",
      "state": "merged",
      "additions": 50,
      "deletions": 8,
      "repository": {
        "name": "halloween-hackathon",
        "description": null,
        "language": "JavaScript",
        "html_url": "https://github.com/alcl2000/halloween-hackathon",
        "owner": {
          "login": "alcl2000",
          "avatar_url": "https://avatars.githubusercontent.com/u/107885891?v=4"
        }
      }
    },
    {
      "id": 1568998741,
      "number": 77,
      "title": "update readme",
      "description": null,
      "created_at": "2023-10-23T11:37:11Z",
      "merged_at": "2023-10-23T11:37:17Z",
      "html_url": "https://github.com/alcl2000/halloween-hackathon/pull/77",
      "state": "merged",
      "additions": 22,
      "deletions": 4,
      "repository": {
        "name": "halloween-hackathon",
        "description": null,
        "language": "JavaScript",
        "html_url": "https://github.com/alcl2000/halloween-hackathon",
        "owner": {
          "login": "alcl2000",
          "avatar_url": "https://avatars.githubusercontent.com/u/107885891?v=4"
        }
      }
    }
  ],
  "meta": {
    "username": "lmcrean",
    "count": 20,
    "pagination": {
      "page": 10,
      "per_page": 20,
      "total_count": 218,
      "total_pages": 11,
      "has_next_page": true,
      "has_previous_page": true
    }
  }
}