{
  "data": [
    {
      "id": 1568976862,
      "number": 76,
      "title": "default image styling",
      "description": null,
      "created_at": "2023-10-23T11:21:54Z",
      "merged_at": "2023-10-23T11:22:35Z",
      "html_url": "https://github.com/alcl2000/halloween-hackathon/pull/76",
      "state": "merged",
      "additions": 5,
      "deletions": 0,
      "repository": {
        "name": "halloween-hackathon",
        "description": null,
        "language": "JavaScript",
        "html_url": "https://github.com/alcl2000/halloween-hackathon",
        "owner": {
          "login": "alcl2000",
          "avatar_url": "https://avatars.githubusercontent.com/u/107885891?v=4"
        }
      }
    },
    {
      "id": 1568969188,
      "number": 75,
      "title": "remove border signup",
      "description": null,
      "created_at": "2023-10-23T11:17:05Z",
      "merged_at": "2023-10-23T11:17:12Z",
      "html_url": "https://github.com/alcl2000/halloween-hackathon/pull/75",
      "state": "merged",
      "additions": 1,
      "deletions": 1,
      "repository": {
        "name": "halloween-hackathon",
        "description": null,
        "language": "JavaScript",
        "html_url": "https://github.com/alcl2000/halloween-hackathon",
        "owner": {
          "login": "alcl2000",
          "avatar_url": "https://avatars.githubusercontent.com/u/107885891?v=4"
        }
      }
    },
    {
      "id": 1568939632,
      "number": 73,
      "title": "centering signup form",
      "description": null,
      "created_at": "2023-10-23T10:57:11Z",
      "merged_at": "2023-10-23T11:00:01Z",
      "html_url": "https://github.com/alcl2000/halloween-hackathon/pull/73",
      "state": "merged",
      "additions": 2,
      "deletions": 2,
      "repository": {
        "name": "halloween-hackathon",
        "description": null,
        "language": "JavaScript",
        "html_url": "https://github.com/alcl2000/halloween-hackathon",
        "owner": {
          "login": "alcl2000",
          "avatar_url": "https://avatars.githubusercontent.com/u/107885891?v=4"
        }
      }
    },
    {
      "id": 1568732158,
      "number": 71,
      "title": "default image front end logic, updated responsivity sign up",
      "description": null,
      "created_at": "2023-10-23T08:46:54Z",
      "merged_at": "2023-10-23T10:21:03Z",
      "html_url": "https://github.com/alcl2000/halloween-hackathon/pull/71",
      "state": "merged",
      "additions": 19,
      "deletions": 11,
      "repository": {
        "name": "halloween-hackathon",
        "description": null,
        "language": "JavaScript",
        "html_url": "https://github.com/alcl2000/halloween-hackathon",
        "owner": {
          "login": "alcl2000",
          "avatar_url": "https://avatars.githubusercontent.com/u/107885891?v=4"
        }
      }
    },
    {
      "id": 1568200367,
      "number": 70,
      "title": "Update Readme",
      "description": null,
      "created_at": "2023-10-22T21:08:50Z",
      "merged_at": "2023-10-23T08:36:51Z",
      "html_url": "https://github.com/alcl2000/halloween-hackathon/pull/70",
      "state": "merged",
      "additions": 17,
      "deletions": 2,
      "repository": {
        "name": "halloween-hackathon",
        "description": null,
        "language": "JavaScript",
        "html_url": "https://github.com/alcl2000/halloween-hackathon",
        "owner": {
          "login": "alcl2000",
          "avatar_url": "https://avatars.githubusercontent.com/u/107885891?v=4"
        }
      }
    },
    {
      "id": 1568197748,
      "number": 69,
      "title": "userprofileimage upload",
      "description": null,
      "created_at": "2023-10-22T20:58:12Z",
      "merged_at": "2023-10-22T20:59:05Z",
      "html_url": "https://github.com/alcl2000/halloween-hackathon/pull/69",
      "state": "merged",
      "additions": 37,
      "deletions": 11,
      "repository": {
        "name": "halloween-hackathon",
        "description": null,
        "language": "JavaScript",
        "html_url": "https://github.com/alcl2000/halloween-hackathon",
        "owner": {
          "login": "alcl2000",
          "avatar_url": "https://avatars.githubusercontent.com/u/107885891?v=4"
        }
      }
    },
    {
      "id": 1568140481,
      "number": 65,
      "title": "Upload Picture Skeleton for SignupForm",
      "description": null,
      "created_at": "2023-10-22T17:17:35Z",
      "merged_at": "2023-10-22T17:22:03Z",
      "html_url": "https://github.com/alcl2000/halloween-hackathon/pull/65",
      "state": "merged",
      "additions": 37,
      "deletions": 0,
      "repository": {
        "name": "halloween-hackathon",
        "description": null,
        "language": "JavaScript",
        "html_url": "https://github.com/alcl2000/halloween-hackathon",
        "owner": {
          "login": "alcl2000",
          "avatar_url": "https://avatars.githubusercontent.com/u/107885891?v=4"
        }
      }
    },
    {
      "id": 1568132166,
      "number": 63,
      "title": "LandingPage Links",
      "description": null,
      "created_at": "2023-10-22T16:47:03Z",
      "merged_at": "2023-10-22T16:47:40Z",
      "html_url": "https://github.com/alcl2000/halloween-hackathon/pull/63",
      "state": "merged",
      "additions": 6,
      "deletions": 1,
      "repository": {
        "name": "halloween-hackathon",
        "description": null,
        "language": "JavaScript",
        "html_url": "https://github.com/alcl2000/halloween-hackathon",
        "owner": {
          "login": "alcl2000",
          "avatar_url": "https://avatars.githubusercontent.com/u/107885891?v=4"
        }
      }
    },
    {
      "id": 1568125088,
      "number": 62,
      "title": "Create LandingPage.js",
      "description": null,
      "created_at": "2023-10-22T16:20:17Z",
      "merged_at": "2023-10-22T16:21:16Z",
      "html_url": "https://github.com/alcl2000/halloween-hackathon/pull/62",
      "state": "merged",
      "additions": 14,
      "deletions": 0,
      "repository": {
        "name": "halloween-hackathon",
        "description": null,
        "language": "JavaScript",
        "html_url": "https://github.com/alcl2000/halloween-hackathon",
        "owner": {
          "login": "alcl2000",
          "avatar_url": "https://avatars.githubusercontent.com/u/107885891?v=4"
        }
      }
    },
    {
      "id": 1568111314,
      "number": 59,
      "title": "Update Readme",
      "description": null,
      "created_at": "2023-10-22T15:30:33Z",
      "merged_at": "2023-10-22T16:03:33Z",
      "html_url": "https://github.com/alcl2000/halloween-hackathon/pull/59",
      "state": "merged",
      "additions": 88,
      "deletions": 10,
      "repository": {
        "name": "halloween-hackathon",
        "description": null,
        "language": "JavaScript",
        "html_url": "https://github.com/alcl2000/halloween-hackathon",
        "owner": {
          "login": "alcl2000",
          "avatar_url": "https://avatars.githubusercontent.com/u/107885891?v=4"
        }
      }
    },
    {
      "id": 1568040219,
      "number": 46,
      "title": "update Readme to correct bullet point format, implement colors first draft",
      "description": null,
      "created_at": "2023-10-22T11:01:57Z",
      "merged_at": "2023-10-22T12:51:05Z",
      "html_url": "https://github.com/alcl2000/halloween-hackathon/pull/46",
      "state": "merged",
      "additions": 68,
      "deletions": 40,
      "repository": {
        "name": "halloween-hackathon",
        "description": null,
        "language": "JavaScript",
        "html_url": "https://github.com/alcl2000/halloween-hackathon",
        "owner": {
          "login": "alcl2000",
          "avatar_url": "https://avatars.githubusercontent.com/u/107885891?v=4"
        }
      }
    },
    {
      "id": 1567745444,
      "number": 29,
      "title": "Laurie Initial Commit",
      "description": null,
      "created_at": "2023-10-21T12:55:01Z",
      "merged_at": "2023-10-21T17:03:21Z",
      "html_url": "https://github.com/alcl2000/halloween-hackathon/pull/29",
      "state": "merged",
      "additions": 570,
      "deletions": 15,
      "repository": {
        "name": "halloween-hackathon",
        "description": null,
        "language": "JavaScript",
        "html_url": "https://github.com/alcl2000/halloween-hackathon",
        "owner": {
          "login": "alcl2000",
          "avatar_url": "https://avatars.githubusercontent.com/u/107885891?v=4"
        }
      }
    },
    {
      "id": 1536934872,
      "number": 3,
      "title": "update logo with local host",
      "description": null,
      "created_at": "2023-10-01T09:27:15Z",
      "merged_at": "2023-10-01T09:27:20Z",
      "html_url": "https://github.com/lmcrean/Steam-Report/pull/3",
      "state": "merged",
      "additions": 103,
      "deletions": 20,
      "repository": {
        "name": "Steam-Report",
        "description": "A hybrid of Personality Trait Test and Trivia quiz that provides young people with a recommended career pathway based on their unique traits and subject knowledge",
        "language": "Python",
        "html_url": "https://github.com/lmcrean/Steam-Report",
        "owner": {
          "login": "lmcrean",
          "avatar_url": "https://avatars.githubusercontent.com/u/133490867?v=4"
        }
      }
    },
    {
      "id": 1536927263,
      "number": 2,
      "title": "Leaderboard",
      "description": null,
      "created_at": "2023-10-01T09:05:50Z",
      "merged_at": "2023-10-01T09:05:56Z",
      "html_url": "https://github.com/lmcrean/Steam-Report/pull/2",
      "state": "merged",
      "additions": 30,
      "deletions": 32,
      "repository": {
        "name": "Steam-Report",
        "description": "A hybrid of Personality Trait Test and Trivia quiz that provides young people with a recommended career pathway based on their unique traits and subject knowledge",
        "language": "Python",
        "html_url": "https://github.com/lmcrean/Steam-Report",
        "owner": {
          "login": "lmcrean",
          "avatar_url": "https://avatars.githubusercontent.com/u/133490867?v=4"
        }
      }
    },
    {
      "id": 1536673206,
      "number": 1,
      "title": "Leaderboard",
      "description": null,
      "created_at": "2023-09-30T18:12:58Z",
      "merged_at": "2023-09-30T18:13:05Z",
      "html_url": "https://github.com/lmcrean/Steam-Report/pull/1",
      "state": "merged",
      "additions": 32,
      "deletions": 6,
      "repository": {
        "name": "Steam-Report",
        "description": "A hybrid of Personality Trait Test and Trivia quiz that provides young people with a recommended career pathway based on their unique traits and subject knowledge",
        "language": "Python",
        "html_url": "https://github.com/lmcrean/Steam-Report",
        "owner": {
          "login": "lmcrean",
          "avatar_url": "https://avatars.githubusercontent.com/u/133490867?v=4"
        }
      }
    },
    {
      "id": 1496077078,
      "number": 2,
      "title": "Add essential crocodile expressions feature",
      "description": null,
      "created_at": "2023-08-30T20:06:45Z",
      "merged_at": "2023-08-30T20:06:55Z",
      "html_url": "https://github.com/lmcrean/Crocodile-Kingdom/pull/2",
      "state": "merged",
      "additions": 54,
      "deletions": 6,
      "repository": {
        "name": "Crocodile-Kingdom",
        "description": "Crocodile Kingdom is a memory game for 5 year olds developed using vanilla Javascript",
        "language": "HTML",
        "html_url": "https://github.com/lmcrean/Crocodile-Kingdom",
        "owner": {
          "login": "lmcrean",
          "avatar_url": "https://avatars.githubusercontent.com/u/133490867?v=4"
        }
      }
    },
    {
      "id": 1495853496,
      "number": 1,
      "title": "Crocodile sprite content with multiple layers",
      "description": null,
      "created_at": "2023-08-30T16:48:01Z",
      "merged_at": "2023-08-30T16:48:07Z",
      "html_url": "https://github.com/lmcrean/Crocodile-Kingdom/pull/1",
      "state": "merged",
      "additions": 232,
      "deletions": 216,
      "repository": {
        "name": "Crocodile-Kingdom",
        "description": "Crocodile Kingdom is a memory game for 5 year olds developed using vanilla Javascript",
        "language": "HTML",
        "html_url": "https://github.com/lmcrean/Crocodile-Kingdom",
        "owner": {
          "login": "lmcrean",
          "avatar_url": "https://avatars.githubusercontent.com/u/133490867?v=4"
        }
      }
    },
    {
      "id": 1482941111,
      "number": 51,
      "title": "Update README.md *typo",
      "description": null,
      "created_at": "2023-08-21T13:57:44Z",
      "merged_at": "2023-08-21T13:58:11Z",
      "html_url": "https://github.com/lmcrean/RetrOlympics-Rush/pull/51",
      "state": "merged",
      "additions": 2,
      "deletions": 2,
      "repository": {
        "name": "RetrOlympics-Rush",
        "description": "A nostalgic sidescroller game with a nod to the 2024 Paris Olympics, completed for Code Institute's Retro-Themed Hackathon",
        "language": "JavaScript",
        "html_url": "https://github.com/lmcrean/RetrOlympics-Rush",
        "owner": {
          "login": "lmcrean",
          "avatar_url": "https://avatars.githubusercontent.com/u/133490867?v=4"
        }
      }
    }
  ],
  "meta": {
    "username": "lmcrean",
    "count": 18,
    "pagination": {
      "page": 11,
      "per_page": 20,
      "total_count": 218,
      "total_pages": 11,
      "has_next_page": false,
      "has_previous_page": true
    }
  }
}