{
  "data": [
    {
      "id": 2465853755,
      "number": 171,
      "title": "Create CONTRIBUTING.md",
      "description": null,
      "created_at": "2025-04-17T11:31:49Z",
      "merged_at": "2025-04-17T11:34:56Z",
      "html_url": "https://github.com/lmcrean/dottie/pull/171",
      "state": "merged",
      "additions": 23,
      "deletions": 0,
      "repository": {
        "name": "dottie",
        "description": "Dottie : Your Period Bestie. Empowering adolescent girls with knowledge about their menstrual health through accessible, friendly AI-powered guidance.",
        "language": "JavaScript",
        "html_url": "https://github.com/lmcrean/dottie",
        "owner": {
          "login": "lmcrean",
          "avatar_url": "https://avatars.githubusercontent.com/u/133490867?v=4"
        }
      }
    },
    {
      "id": 2463179045,
      "number": 158,
      "title": "Documentation",
      "description": null,
      "created_at": "2025-04-16T10:30:33Z",
      "merged_at": "2025-04-16T10:30:40Z",
      "html_url": "https://github.com/lmcrean/dottie/pull/158",
      "state": "merged",
      "additions": 42,
      "deletions": 3,
      "repository": {
        "name": "dottie",
        "description": "Dottie : Your Period Bestie. Empowering adolescent girls with knowledge about their menstrual health through accessible, friendly AI-powered guidance.",
        "language": "JavaScript",
        "html_url": "https://github.com/lmcrean/dottie",
        "owner": {
          "login": "lmcrean",
          "avatar_url": "https://avatars.githubusercontent.com/u/133490867?v=4"
        }
      }
    },
    {
      "id": 2463176187,
      "number": 157,
      "title": "Documentation: Updated documentation files and moved to root",
      "description": null,
      "created_at": "2025-04-16T10:29:16Z",
      "merged_at": "2025-04-16T10:29:51Z",
      "html_url": "https://github.com/lmcrean/dottie/pull/157",
      "state": "merged",
      "additions": 1931,
      "deletions": 1151,
      "repository": {
        "name": "dottie",
        "description": "Dottie : Your Period Bestie. Empowering adolescent girls with knowledge about their menstrual health through accessible, friendly AI-powered guidance.",
        "language": "JavaScript",
        "html_url": "https://github.com/lmcrean/dottie",
        "owner": {
          "login": "lmcrean",
          "avatar_url": "https://avatars.githubusercontent.com/u/133490867?v=4"
        }
      }
    },
    {
      "id": 2463157488,
      "number": 156,
      "title": "Update README.md",
      "description": null,
      "created_at": "2025-04-16T10:21:33Z",
      "merged_at": "2025-04-16T10:21:41Z",
      "html_url": "https://github.com/lmcrean/dottie/pull/156",
      "state": "merged",
      "additions": 0,
      "deletions": 210,
      "repository": {
        "name": "dottie",
        "description": "Dottie : Your Period Bestie. Empowering adolescent girls with knowledge about their menstrual health through accessible, friendly AI-powered guidance.",
        "language": "JavaScript",
        "html_url": "https://github.com/lmcrean/dottie",
        "owner": {
          "login": "lmcrean",
          "avatar_url": "https://avatars.githubusercontent.com/u/133490867?v=4"
        }
      }
    },
    {
      "id": 2463149163,
      "number": 155,
      "title": "Delete Usage.md",
      "description": null,
      "created_at": "2025-04-16T10:18:38Z",
      "merged_at": "2025-04-16T10:18:43Z",
      "html_url": "https://github.com/lmcrean/dottie/pull/155",
      "state": "merged",
      "additions": 0,
      "deletions": 24,
      "repository": {
        "name": "dottie",
        "description": "Dottie : Your Period Bestie. Empowering adolescent girls with knowledge about their menstrual health through accessible, friendly AI-powered guidance.",
        "language": "JavaScript",
        "html_url": "https://github.com/lmcrean/dottie",
        "owner": {
          "login": "lmcrean",
          "avatar_url": "https://avatars.githubusercontent.com/u/133490867?v=4"
        }
      }
    },
    {
      "id": 2463147546,
      "number": 154,
      "title": "Update README-developers.md",
      "description": null,
      "created_at": "2025-04-16T10:18:11Z",
      "merged_at": "2025-04-16T10:18:19Z",
      "html_url": "https://github.com/lmcrean/dottie/pull/154",
      "state": "merged",
      "additions": 28,
      "deletions": 1,
      "repository": {
        "name": "dottie",
        "description": "Dottie : Your Period Bestie. Empowering adolescent girls with knowledge about their menstrual health through accessible, friendly AI-powered guidance.",
        "language": "JavaScript",
        "html_url": "https://github.com/lmcrean/dottie",
        "owner": {
          "login": "lmcrean",
          "avatar_url": "https://avatars.githubusercontent.com/u/133490867?v=4"
        }
      }
    },
    {
      "id": 2460957594,
      "number": 140,
      "title": "Update README.md",
      "description": null,
      "created_at": "2025-04-15T14:47:01Z",
      "merged_at": "2025-04-15T14:47:07Z",
      "html_url": "https://github.com/lmcrean/dottie/pull/140",
      "state": "merged",
      "additions": 3,
      "deletions": 0,
      "repository": {
        "name": "dottie",
        "description": "Dottie : Your Period Bestie. Empowering adolescent girls with knowledge about their menstrual health through accessible, friendly AI-powered guidance.",
        "language": "JavaScript",
        "html_url": "https://github.com/lmcrean/dottie",
        "owner": {
          "login": "lmcrean",
          "avatar_url": "https://avatars.githubusercontent.com/u/133490867?v=4"
        }
      }
    },
    {
      "id": 2460953219,
      "number": 139,
      "title": "Update README.md",
      "description": null,
      "created_at": "2025-04-15T14:45:19Z",
      "merged_at": "2025-04-15T14:45:26Z",
      "html_url": "https://github.com/lmcrean/dottie/pull/139",
      "state": "merged",
      "additions": 5,
      "deletions": 14,
      "repository": {
        "name": "dottie",
        "description": "Dottie : Your Period Bestie. Empowering adolescent girls with knowledge about their menstrual health through accessible, friendly AI-powered guidance.",
        "language": "JavaScript",
        "html_url": "https://github.com/lmcrean/dottie",
        "owner": {
          "login": "lmcrean",
          "avatar_url": "https://avatars.githubusercontent.com/u/133490867?v=4"
        }
      }
    },
    {
      "id": 2460038975,
      "number": 133,
      "title": "Update README-developers.md",
      "description": null,
      "created_at": "2025-04-15T08:56:25Z",
      "merged_at": "2025-04-15T08:56:32Z",
      "html_url": "https://github.com/lmcrean/dottie/pull/133",
      "state": "merged",
      "additions": 3,
      "deletions": 8,
      "repository": {
        "name": "dottie",
        "description": "Dottie : Your Period Bestie. Empowering adolescent girls with knowledge about their menstrual health through accessible, friendly AI-powered guidance.",
        "language": "JavaScript",
        "html_url": "https://github.com/lmcrean/dottie",
        "owner": {
          "login": "lmcrean",
          "avatar_url": "https://avatars.githubusercontent.com/u/133490867?v=4"
        }
      }
    },
    {
      "id": 2460024088,
      "number": 132,
      "title": "Update .gitignore",
      "description": null,
      "created_at": "2025-04-15T08:50:31Z",
      "merged_at": "2025-04-15T08:50:42Z",
      "html_url": "https://github.com/lmcrean/dottie/pull/132",
      "state": "merged",
      "additions": 2,
      "deletions": 1,
      "repository": {
        "name": "dottie",
        "description": "Dottie : Your Period Bestie. Empowering adolescent girls with knowledge about their menstrual health through accessible, friendly AI-powered guidance.",
        "language": "JavaScript",
        "html_url": "https://github.com/lmcrean/dottie",
        "owner": {
          "login": "lmcrean",
          "avatar_url": "https://avatars.githubusercontent.com/u/133490867?v=4"
        }
      }
    },
    {
      "id": 2460022002,
      "number": 131,
      "title": "Delete test-results directory",
      "description": null,
      "created_at": "2025-04-15T08:49:52Z",
      "merged_at": "2025-04-15T08:49:58Z",
      "html_url": "https://github.com/lmcrean/dottie/pull/131",
      "state": "merged",
      "additions": 0,
      "deletions": 4,
      "repository": {
        "name": "dottie",
        "description": "Dottie : Your Period Bestie. Empowering adolescent girls with knowledge about their menstrual health through accessible, friendly AI-powered guidance.",
        "language": "JavaScript",
        "html_url": "https://github.com/lmcrean/dottie",
        "owner": {
          "login": "lmcrean",
          "avatar_url": "https://avatars.githubusercontent.com/u/133490867?v=4"
        }
      }
    },
    {
      "id": 2460018484,
      "number": 130,
      "title": "Update Usage.md",
      "description": null,
      "created_at": "2025-04-15T08:48:32Z",
      "merged_at": "2025-04-15T08:48:38Z",
      "html_url": "https://github.com/lmcrean/dottie/pull/130",
      "state": "merged",
      "additions": 12,
      "deletions": 12,
      "repository": {
        "name": "dottie",
        "description": "Dottie : Your Period Bestie. Empowering adolescent girls with knowledge about their menstrual health through accessible, friendly AI-powered guidance.",
        "language": "JavaScript",
        "html_url": "https://github.com/lmcrean/dottie",
        "owner": {
          "login": "lmcrean",
          "avatar_url": "https://avatars.githubusercontent.com/u/133490867?v=4"
        }
      }
    },
    {
      "id": 2458703380,
      "number": 125,
      "title": "Chore: Duplicate codeline fix",
      "description": null,
      "created_at": "2025-04-14T21:09:53Z",
      "merged_at": "2025-04-14T21:10:08Z",
      "html_url": "https://github.com/lmcrean/dottie/pull/125",
      "state": "merged",
      "additions": 2,
      "deletions": 3,
      "repository": {
        "name": "dottie",
        "description": "Dottie : Your Period Bestie. Empowering adolescent girls with knowledge about their menstrual health through accessible, friendly AI-powered guidance.",
        "language": "JavaScript",
        "html_url": "https://github.com/lmcrean/dottie",
        "owner": {
          "login": "lmcrean",
          "avatar_url": "https://avatars.githubusercontent.com/u/133490867?v=4"
        }
      }
    },
    {
      "id": 2458338754,
      "number": 118,
      "title": "Implement Dynamic API Base URL Configuration: Enhance apiClient.ts to determine the API base URL using environment variables, localStorage, and fallbacks for local development and production, improving flexibility in API requests.",
      "description": null,
      "created_at": "2025-04-14T18:21:24Z",
      "merged_at": "2025-04-14T18:21:56Z",
      "html_url": "https://github.com/lmcrean/dottie/pull/118",
      "state": "merged",
      "additions": 31,
      "deletions": 1,
      "repository": {
        "name": "dottie",
        "description": "Dottie : Your Period Bestie. Empowering adolescent girls with knowledge about their menstrual health through accessible, friendly AI-powered guidance.",
        "language": "JavaScript",
        "html_url": "https://github.com/lmcrean/dottie",
        "owner": {
          "login": "lmcrean",
          "avatar_url": "https://avatars.githubusercontent.com/u/133490867?v=4"
        }
      }
    },
    {
      "id": 2458299382,
      "number": 117,
      "title": "Enhance CORS Configuration: Update server.js to include OPTIONS method in CORS settings and allow specific headers, enabling pre-flight requests for all routes and improving API compatibility.",
      "description": null,
      "created_at": "2025-04-14T18:05:41Z",
      "merged_at": "2025-04-14T18:06:05Z",
      "html_url": "https://github.com/lmcrean/dottie/pull/117",
      "state": "merged",
      "additions": 5,
      "deletions": 1,
      "repository": {
        "name": "dottie",
        "description": "Dottie : Your Period Bestie. Empowering adolescent girls with knowledge about their menstrual health through accessible, friendly AI-powered guidance.",
        "language": "JavaScript",
        "html_url": "https://github.com/lmcrean/dottie",
        "owner": {
          "login": "lmcrean",
          "avatar_url": "https://avatars.githubusercontent.com/u/133490867?v=4"
        }
      }
    },
    {
      "id": 2458282512,
      "number": 116,
      "title": "Update Server Startup Logic: Modify server.js to force the server to listen in development mode and when run directly, enhancing local development experience.",
      "description": null,
      "created_at": "2025-04-14T17:56:48Z",
      "merged_at": "2025-04-14T17:58:33Z",
      "html_url": "https://github.com/lmcrean/dottie/pull/116",
      "state": "merged",
      "additions": 57,
      "deletions": 46,
      "repository": {
        "name": "dottie",
        "description": "Dottie : Your Period Bestie. Empowering adolescent girls with knowledge about their menstrual health through accessible, friendly AI-powered guidance.",
        "language": "JavaScript",
        "html_url": "https://github.com/lmcrean/dottie",
        "owner": {
          "login": "lmcrean",
          "avatar_url": "https://avatars.githubusercontent.com/u/133490867?v=4"
        }
      }
    },
    {
      "id": 2458255164,
      "number": 115,
      "title": "add mock for GEMINI_API_KEY to enable users to run IDE with no .env",
      "description": null,
      "created_at": "2025-04-14T17:41:55Z",
      "merged_at": "2025-04-14T17:42:04Z",
      "html_url": "https://github.com/lmcrean/dottie/pull/115",
      "state": "merged",
      "additions": 202,
      "deletions": 91,
      "repository": {
        "name": "dottie",
        "description": "Dottie : Your Period Bestie. Empowering adolescent girls with knowledge about their menstrual health through accessible, friendly AI-powered guidance.",
        "language": "JavaScript",
        "html_url": "https://github.com/lmcrean/dottie",
        "owner": {
          "login": "lmcrean",
          "avatar_url": "https://avatars.githubusercontent.com/u/133490867?v=4"
        }
      }
    },
    {
      "id": 2458229863,
      "number": 113,
      "title": "Enhance Supabase Service for Local Development: Implement a mock Supabase client for local development and update environment variable loading to handle missing .env files gracefully. This allows for improved testing and development flexibility without requiring a live Supabase connection.",
      "description": null,
      "created_at": "2025-04-14T17:27:37Z",
      "merged_at": "2025-04-14T17:27:44Z",
      "html_url": "https://github.com/lmcrean/dottie/pull/113",
      "state": "merged",
      "additions": 52,
      "deletions": 8,
      "repository": {
        "name": "dottie",
        "description": "Dottie : Your Period Bestie. Empowering adolescent girls with knowledge about their menstrual health through accessible, friendly AI-powered guidance.",
        "language": "JavaScript",
        "html_url": "https://github.com/lmcrean/dottie",
        "owner": {
          "login": "lmcrean",
          "avatar_url": "https://avatars.githubusercontent.com/u/133490867?v=4"
        }
      }
    },
    {
      "id": 2457505514,
      "number": 110,
      "title": "Tested assessment decision path with clarified Pattern Determination logic, 100% pass",
      "description": null,
      "created_at": "2025-04-14T12:17:11Z",
      "merged_at": "2025-04-14T12:18:55Z",
      "html_url": "https://github.com/lmcrean/dottie/pull/110",
      "state": "merged",
      "additions": 513,
      "deletions": 81,
      "repository": {
        "name": "dottie",
        "description": "Dottie : Your Period Bestie. Empowering adolescent girls with knowledge about their menstrual health through accessible, friendly AI-powered guidance.",
        "language": "JavaScript",
        "html_url": "https://github.com/lmcrean/dottie",
        "owner": {
          "login": "lmcrean",
          "avatar_url": "https://avatars.githubusercontent.com/u/133490867?v=4"
        }
      }
    },
    {
      "id": 2456177360,
      "number": 107,
      "title": "Migrate from Azure SQL to Supabase SQL",
      "description": "key files effected:\r\n\r\n```\r\nbackend/server.js\r\nbackend/services/dbService.js\r\nbackend/db/index.js\r\nbackend/server.js\r\n```\r\n\r\n**Local IDE continues to use SQLite**",
      "created_at": "2025-04-13T17:35:00Z",
      "merged_at": "2025-04-13T19:31:20Z",
      "html_url": "https://github.com/lmcrean/dottie/pull/107",
      "state": "merged",
      "additions": 1940,
      "deletions": 458,
      "repository": {
        "name": "dottie",
        "description": "Dottie : Your Period Bestie. Empowering adolescent girls with knowledge about their menstrual health through accessible, friendly AI-powered guidance.",
        "language": "JavaScript",
        "html_url": "https://github.com/lmcrean/dottie",
        "owner": {
          "login": "lmcrean",
          "avatar_url": "https://avatars.githubusercontent.com/u/133490867?v=4"
        }
      }
    }
  ],
  "meta": {
    "username": "lmcrean",
    "count": 20,
    "pagination": {
      "page": 6,
      "per_page": 20,
      "total_count": 218,
      "total_pages": 11,
      "has_next_page": true,
      "has_previous_page": true
    }
  }
}