{
  "data": [
    {
      "id": 2786918386,
      "number": 17,
      "title": "Add Code Coverage Infrastructure",
      "created_at": "2025-08-30T16:26:40Z",
      "merged_at": null,
      "html_url": "https://github.com/GSK-Biostatistics/docorator/pull/17",
      "state": "open",
      "additions": 55,
      "deletions": 1,
      "comments": 0,
      "repository": {
        "name": "docorator",
        "description": null,
        "language": "R",
        "html_url": "https://github.com/GSK-Biostatistics/docorator",
        "owner": {
          "login": "GSK-Biostatistics",
          "avatar_url": "https://avatars.githubusercontent.com/u/87132606?v=4"
        }
      }
    },
    {
      "id": 2760288725,
      "number": 5595,
      "title": "Disable LDL/STL checks for CTK < 13.1 (nvbug 5243118)",
      "created_at": "2025-08-20T15:58:10Z",
      "merged_at": null,
      "html_url": "https://github.com/NVIDIA/cccl/pull/5595",
      "state": "open",
      "additions": 81,
      "deletions": 16,
      "comments": 13,
      "repository": {
        "name": "cccl",
        "description": "CUDA Core Compute Libraries",
        "language": "C++",
        "html_url": "https://github.com/NVIDIA/cccl",
        "owner": {
          "login": "NVIDIA",
          "avatar_url": "https://avatars.githubusercontent.com/u/1728152?v=4"
        }
      }
    },
    {
      "id": 2728241517,
      "number": 12806,
      "title": "utils: use `ShardIdentity` in `postgres_client.rs` for improved type safety",
      "created_at": "2025-08-07T15:42:07Z",
      "merged_at": null,
      "html_url": "https://github.com/neondatabase/neon/pull/12806",
      "state": "open",
      "additions": 390,
      "deletions": 164,
      "comments": 3,
      "repository": {
        "name": "neon",
        "description": "Neon: Serverless Postgres. We separated storage and compute to offer autoscaling, code-like database branching, and scale to zero.",
        "language": "Rust",
        "html_url": "https://github.com/neondatabase/neon",
        "owner": {
          "login": "neondatabase",
          "avatar_url": "https://avatars.githubusercontent.com/u/77690634?v=4"
        }
      }
    }
  ],
  "meta": {
    "username": "lmcrean",
    "count": 3,
    "pagination": {
      "page": 2,
      "per_page": 20,
      "total_count": 23,
      "total_pages": 2,
      "has_next_page": false,
      "has_previous_page": true
    }
  }
}